Data Analysis with R: A Take Home Test from a Gaming Startup - A Hugo website
…
# Define dt as the data set for transformation
dt <- d

We have a data set to work with now:

d

# A tibble: 9,999 x 4
     ltv   ttime   tue econ    
   <int>   <int> <int> <fct>   
 1   250 1077572    38 Econ1   
 2    49   60028    15 Econ1   
 3   680 2018285    46 Econ1   
 4   125   98142    15 Econ1   
 5   450  115692    15 Econ1   
 6   200       0    15 Econ1   
 7   250   74007    15 Controls
 8   200  243462    25 Econ1   
 9   300       0    15 Econ1   
10   385  762157    75 Controls
# ... with 9,989 more rows

Step 1.2: Outliers Analysis and Transformation

Step 1.2.1: Outliers Analysis for ttime

That is look at the largest numbers.

d %>% filter(ttime > 157680000) %>% arrange(desc(ttime))

# A tibble: 216 x 4
     ltv      ttime   tue econ    
   <int>      <int> <int> <fct>   
 1  1235 1735806702  9016 Controls
 2  1954 1701083231 10563 Controls
 3  1300 1580484392  9055 Controls
 4  8481 1343444377  7670 Econ2   
 5  2170 1198357926  2570 Econ3   
 6  2836 1062455575  7553 Controls
 7  1910 1020310318  1870 Econ1   
 8   805  974155131  4312 Econ1   
 9  1575  943606803  9000 Controls
10   172  893971309  2013 Econ1   
# ... with 206 more rows
…
What worries me is the number of observations with zero total time: 1090 of them.

d %>% filter(ttime == 0) %>% count()

# A tibble: 1 x 1
      n
  <int>
1  1090

If ttime is larger than zero, it starts from 1404 :

d %>% filter(ttime > 0) %>% arrange(ttime)

# A tibble: 8,909 x 4
     ltv ttime   tue econ    
   <int> <int> <int> <fct>   
 1    56  1404    15 Controls
 2   150  1501    15 Econ1   
 3   250  1860    15 Econ1   
 4   225  1941    65 Econ2   
 5   100  1943    15 Controls
 6   122  1946    15 Econ1   
 7   150  1953    15 Econ1   
 8   180  1960    15 Controls
 9   100  1970    15 Econ2   
10   240  1991    65 Econ1   
# ... with 8,899 more rows

Since a user cannot have 0 total time, ttime = 0 could mean data is lost or the player got banned for cheating. On the other hand, notice that they have tue (total units earned) = 15, or sometimes 65. It could be that these users got 15 units right off the bat for registering. Perhaps at some period there is another 50 units of bonus for joining. Again, but in real life we need to make sure we understand the data.

d %>% filter(ttime == 0)

# A tibble: 1,090 x 4
     ltv ttime   tue econ    
   <int> <int> <int> <fct>   
 1   200     0    15 Econ1   
 2   300     0    15 Econ1   
 3   200     0    15 Controls
 4    50     0    15 Econ2   
 5    35     0    65 Econ1   
 6   300     0    15 Econ2   
 7   200     0    15 Controls
 8   172     0    15 Controls
 9   180     0    15 Econ2   
10   250     0    15 Econ3   
# ... with 1,080 more rows
…
round(quantile(dt$ttime, c(0.001, 0.025,0.05,0.1,0.2,0.5,0.75, 0.9,0.95,0.975,0.99,0.995, 0.999),na.rm = T),0)

 0.1%  2.5%    5%   10%   20%   50%   75%   90%   95% 97.5%   99% 99.5% 99.9% 
    0     0     0     0    11    14    15    17    18    19    19    20    21 

The outliers are not as extreme as before. And there are not many outliers. How do we know that? One way in statistics to define outlier is interquartile (IQR for short, which is the difference between the 75% quantile and 25% quantile) plus 1.5 * 75% quantile. We can see that it is 20.80, which means that about 0.1% of the data are outliers while the max is only 21.

IQR(dt$ttime, na.rm = T) * 1.5 + quantile(dt$ttime, prob = 0.75, na.rm = T, names = F)

[1] 20.15778

Step 1.2.2: Outliers Analysis for ltv

# A tibble: 9,999 x 4
     ltv      ttime   tue econ    
   <int>      <int> <int> <fct>   
 1  8481 1343444377  7670 Econ2   
 2  5055   91157851  1090 Econ1   
 3  4980   60584482   916 Econ3   
 4  4047  183753052  3008 Econ3   
 5  4041  152417084  1964 Econ2   
 6  3955   59262328  1358 Controls
 7  3825  245397166  7504 Controls
 8  3817  129470153  3355 Controls
 9  3717  105271304  1747 Econ1   
10  3660   23777199   324 Econ2   
11  3600   15711574   340 Econ1   
12  3542  386037257  4997 Econ1   
13  3496  108138125  1604 Econ3   
14  3480   33689789   273 Econ1   
15  3457  204170621  2040 Econ3   
16  3445  336848862  5998 Controls
17  3405  396054349  3072 Econ2   
18  3395          0    15 Econ2   
19  3391  151504715  1964 Econ3   
20  3360    1163658    27 Econ3   
# ... with 9,979 more rows
…
Outliers(computed by Q3 + 1.5*IQR) is 7.326

IQR(dt$ltv, na.rm = T) * 1.5 + quantile(dt$ltv, prob =0.75, na.rm = T, names = F) 

[1] 7.325643

Step 1.2.3: Outliers Analysis for tue

tue has no large outliers

d %>% arrange(desc(tue)) %>% print(n=20)

# A tibble: 9,999 x 4
     ltv      ttime   tue econ    
   <int>      <int> <int> <fct>   
 1  1954 1701083231 10563 Controls
 2  1300 1580484392  9055 Controls
 3  1235 1735806702  9016 Controls
 4  1575  943606803  9000 Controls
 5  8481 1343444377  7670 Econ2   
 6  2836 1062455575  7553 Controls
 7  3825  245397166  7504 Controls
 8  1150  593797990  6524 Controls
 9  2957  261935412  6392 Controls
10  1425  728154531  6070 Controls
11  2650  235592611  6065 Controls
12  2456  195675589  6064 Controls
13  2460  505129679  6028 Econ1   
14  3445  336848862  5998 Controls
15  1390  205893448  5989 Controls
16  1970  559355160  5899 Controls
17  1450  420111273  5876 Controls
18  2270  448903627  5857 Controls
19  1325  725797441  5825 Econ1   
20  1350  325941282  5653 Controls
# ... with 9,979 more rows

Now let’s get some idea about the distribution.

quantile(d$tue, c(0.025,0.05,0.1,0.2,0.3,0.5,0.9,0.95,0.99,0.999),na.rm = T)

   2.5%      5%     10%     20%     30%     50%     90%     95%     99%   99.9% 
  15.00   15.00   15.00   15.00   15.00   33.00  425.80  888.40 3006.08 6065.02 

It is “truncated from below” at 15. Almost 30 % of have 15 units to begin with.

d %>% filter(tue == 15 & ttime <2000 & ttime >0  )

# A tibble: 1,083 x 4
     ltv ttime   tue econ    
   <int> <int> <int> <fct>   
 1   200     1    15 Econ1   
 2   300     1    15 Econ1   
 3   200     1    15 Controls
 4    50     1    15 Econ2   
 5   300     1    15 Econ2   
 6   200     1    15 Controls
 7   172     1    15 Controls
 8   180     1    15 Econ2   
 9   250     1    15 Econ3   
10   385     1    15 Econ2   
# ... with 1,073 more rows
…
