Using Pagerank to Analyze NBA Games - A Hugo website
…
Data Analysis

Let us use 2018’s regular season.

games_2018 <- games %>% 
  filter(SEASON == 2018 & 
      GAME_DATE_EST < as.Date("2019-04-12"))

A glance at the data

The data set of games:

games_2018

# A tibble: 1,296 x 21
   GAME_DATE_EST GAME_ID GAME_STATUS_TEXT HOME_TEAM_ID VISITOR_TEAM_ID SEASON
   <date>          <dbl> <chr>                   <dbl>           <dbl>  <dbl>
 1 2019-04-10     2.18e7 Final              1610612737      1610612754   2018
 2 2019-04-10     2.18e7 Final              1610612751      1610612748   2018
 3 2019-04-10     2.18e7 Final              1610612766      1610612753   2018
 4 2019-04-10     2.18e7 Final              1610612752      1610612765   2018
 5 2019-04-10     2.18e7 Final              1610612755      1610612741   2018
 6 2019-04-10     2.18e7 Final              1610612763      1610612744   2018
 7 2019-04-10     2.18e7 Final              1610612749      1610612760   2018
 8 2019-04-10     2.18e7 Final              1610612759      1610612742   2018
 9 2019-04-10     2.18e7 Final              1610612743      1610612750   2018
10 2019-04-10     2.18e7 Final              1610612746      1610612762   2018
# … with 1,286 more rows, and 15 more variables: TEAM_ID_home <dbl>,
#   PTS_home <dbl>, FG_PCT_home <dbl>, FT_PCT_home <dbl>, FG3_PCT_home <dbl>,
#   AST_home <dbl>, REB_home <dbl>, TEAM_ID_away <dbl>, PTS_away <dbl>,
#   FG_PCT_away <dbl>, FT_PCT_away <dbl>, FG3_PCT_away <dbl>, AST_away <dbl>,
#   REB_away <dbl>, HOME_TEAM_WINS <dbl>

The data set of teams

teams

# A tibble: 30 x 14
   LEAGUE_ID TEAM_ID MIN_YEAR MAX_YEAR ABBREVIATION NICKNAME YEARFOUNDED CITY 
   <chr>       <dbl>    <dbl>    <dbl> <chr>        <chr>          <dbl> <chr>
 1 00         1.61e9     1949     2019 ATL          Hawks           1949 Atla…
 2 00         1.61e9     1946     2019 BOS          Celtics         1946 Bost…
 3 00         1.61e9     2002     2019 NOP          Pelicans        2002 New …
 4 00         1.61e9     1966     2019 CHI          Bulls           1966 Chic…
 5 00         1.61e9     1980     2019 DAL          Maveric…        1980 Dall…
 6 00         1.61e9     1976     2019 DEN          Nuggets         1976 Denv…
 7 00         1.61e9     1967     2019 HOU          Rockets         1967 Hous…
 8 00         1.61e9     1970     2019 LAC          Clippers        1970 Los …
 9 00         1.61e9     1948     2019 LAL          Lakers          1948 Los …
10 00         1.61e9     1988     2019 MIA          Heat            1988 Miami
# … with 20 more rows, and 6 more variables: ARENA <chr>, ARENACAPACITY <dbl>,
#   OWNER <chr>, GENERALMANAGER <chr>, HEADCOACH <chr>,
#   DLEAGUEAFFILIATION <chr>
…
